83529 528087
492360 468291
184146 186749
774579 77934
524991 110580
464845 637252
754984 240519
956723 794535
714178 470678
702106 599475
731683 857377
205603 57028
691453 188715
720691 195308
394477 249122
276590 472532
161756 998162
105944 204904
498597 926371
789997 17377
900810 68313
698664 27860
473993 804607
578608 104352
757949 58747
470519 465599
169801 696204
899198 568323
158448 597733
458086 712298
886980 950231
285676 509248
133857 747150
204717 292060
581178 974033
852214 97211
628287 136179
188800 426797
185100 496817
58859 608734
461921 168316
820141 197074
144119 783024
852929 478826
945491 195947
972442 55903
470895 321905
799382 250350
514949 611886
450130 205580
354005 208905
651399 508685
806790 703366
825585 578809
310962 717986
700024 914565
419735 121722
52244 902491
125424 504285
432947 672736
859559 841291
665634 54188
770767 783510
535667 899737
30027 848551
829867 633912
697686 886839
655362 614130
284540 419651
435818 105439
585978 173615
349059 386278
153539 615200
815537 336285
848838 150950
887762 315186
355468 102707
720349 178882
424496 681953
118947 197030
876811 207962
604368 272093
374324 452452
368324 483396
950286 480026
767488 762319
233600 823363
854258 534685
918314 991244
432731 104970
889870 640183
252261 234882
749095 248165
679844 606350
195023 414928
155371 132480
31372 501837
84875 479854
205315 789487
325948 617591
266310 992735
485993 932308
850090 615975
361903 893012
165278 661519
60283 147216
310945 34445
363611 703730
815341 509299
953175 242470
789148 354369
77607 460383
20172 899190
546712 932952
391652 70099
741530 559982
18084 544416
271343 395072
190754 127537
962626 204716
18804 471440
958263 987290
922095 745989
61310 986276
792269 478412
176152 603921
606620 201487
856866 255085
179886 229705
854953 975184
657943 206227
449166 792015
683412 975388
234983 543872
257282 268893
937421 691291
337356 313995
487507 270717
557605 252602
635802 218892
462798 787121
591878 621301
605077 308166
722600 860414
105954 579738
704783 764615
716196 495538
604748 149024
776379 31911
60662 920573
955558 122132
946182 232777
418917 878572
427710 577627
333802 746499
700822 501495
212427 568090
927036 637536
185312 727484
79480 167911
359899 729607
901456 530504
368853 994675
311154 233832
652656 33052
862031 896859
22423 799617
843451 430004
480172 51810
872008 233293
346462 342192
115243 736360
765824 33355
489310 804605
283639 767816
784303 822987
180527 365435
989235 322088
688165 758776
826127 570213
156427 7166
564592 712472
413450 573104
578358 618117
307856 130858
191159 409194
450997 920182
164217 655499
463753 990689
321890 491868
814157 524564
730346 484371
460963 162989
843732 680684
852778 108990
194594 112689
975715 746011
367196 912383
492436 693698
905915 651574
338770 821424
881089 77489
654332 216082
76178 535040
719110 768401
444894 509796
175645 907623
344904 753404
646708 503928
408620 111432
269237 157482
134652 287595
290283 477284
184563 467975
318281 913575
504161 316227
149984 322552
511924 222426
89579 615354
839711 729267
462150 524076
337315 217828
384079 22318
202616 925494
841662 960840
755224 939908
737837 535849
588123 447672
851377 593003
488342 221388
434561 592126
218865 363453
393441 55622
822013 252335
315163 589835
317240 252251
821619 831873
981971 875153
12202 772561
529340 583024
178616 888779
962098 110786
646427 146197
70173 70404
770206 245395
932703 524844
419374 407685
945058 350257
194468 452681
312580 677351
978426 450634
925913 651067
572148 296255
843085 882483
367551 575026
300017 883955
541639 43002
543847 366546
419628 723651
783871 707200
878911 413467
770566 831809
995579 288580
279035 218040
281700 599541
545970 637601
402095 537154
256167 150154
267407 127004
117629 743927
449046 298710
963463 847311
