385867 777463
917274 878260
205973 735320
313644 914193
527045 418993
745500 265732
977612 805010
806222 873355
762513 461609
728098 137215
750701 172086
525083 348318
781410 511845
607540 512265
438031 429305
720922 263871
452327 548144
913300 42798
301355 110845
843715 293831
140027 867787
298370 454894
599552 803722
123591 432959
291030 167003
803636 875142
317842 697695
919218 878647
84642 406696
681441 439623
421746 448182
140095 505327
582569 708538
857643 90799
507546 926656
226816 669008
140555 519692
472896 684036
465150 831653
894377 648929
41022 460500
900241 417852
684965 9772
481294 763628
549082 138258
227249 433875
61613 103201
327054 563707
706679 436040
67865 964281
37956 827107
683912 954547
534514 707861
366394 881476
64452 752636
705621 669941
236557 200025
89103 355616
788729 315891
359662 227587
173000 251658
320402 373744
903973 426320
197175 949051
618594 335663
137225 313503
653013 327712
601707 588431
786302 617208
835460 625911
575751 960684
357205 338601
315699 884602
41164 27047
618707 273497
448 543115
245786 498720
31829 412269
40808 13102
242022 256562
408451 882170
180054 578233
161619 899272
340145 339674
788686 38270
973620 350467
479000 127213
948281 661756
608811 707346
315628 389210
781181 61104
149902 133554
778072 574371
692999 625194
751642 597783
144614 564851
311936 905486
179052 357902
678057 297089
216084 524170
671139 272953
155865 813979
41547 414899
549681 599147
574820 329947
58580 148016
60693 501406
976851 77838
983999 952313
726465 26591
313230 401308
319830 904696
472512 108011
747805 718930
7565 188015
613429 393005
96693 902398
549781 356285
808265 827289
430230 34243
967785 56602
855602 826727
198393 717633
59596 401028
248250 116859
705029 77167
750425 792047
955084 158945
956654 728462
574614 267938
426042 751761
360597 994523
57223 578057
482703 297972
575003 625443
740287 402629
208517 770169
848971 732697
209818 828263
250990 332233
459519 199951
632795 981489
278385 523484
162418 910472
233757 644552
179747 433608
263050 686242
747072 290559
873704 438204
441960 517611
757063 315528
542775 894338
948546 228130
136915 448110
702778 7428
983829 38116
745128 429919
233333 32837
923513 162356
867731 911906
862899 676367
703226 426654
69037 907405
987178 933228
533395 18253
885843 328425
869210 207895
648690 371014
651522 258291
492965 322460
123998 898605
196984 241601
93726 70840
438019 773850
503293 249029
345271 809799
905973 764668
217668 591853
942175 960306
438089 490610
88820 279055
628709 458271
349542 452612
506044 423872
308251 572804
215688 858862
31620 598205
873666 367888
5102 190043
55020 599422
471492 556154
250609 736209
876577 448167
176600 402171
348148 437689
161515 433237
320509 968857
816971 939532
430473 875301
778603 587882
